
    ____    ____  _____  ________    ________    _____     _________  _____  _____     __       _______     _________ 
   |_   \  /   _||_   _||_   ___ `. |_   ___ `. |_   _|   |_   ___  ||_   _||_   _|   /  \     |_   __ \   |_   ___  |
     |   \/   |    | |    | |   `. \  | |   `. \  | |       | |_  \_|  | | /\ | |    / /\ \      | |__) |    | |_  \_|
     | |\  /| |    | |    | |    | |  | |    | |  | |   _   |  _|  _   | |/  \| |   / ____ \     |  __ /     |  _|  _ 
    _| |_\/_| |_  _| |_  _| |___.' / _| |___.' / _| |__/ | _| |___/ |  |   /\   | _/ /    \ \_  _| |  \ \_  _| |___/ |
   |_____||_____||_____||________.' |________.' |________||_________|  |__/  \__||____|  |____||____| |___||_________|
   
